"カニンヘンダックス	",1
"スムースコートチワワ	",1
"タイニープードル	",1
"チワワ	",1
"ティーカッププードル	",1
"トイプードル	",1
"トイマンチェスターテリア	",1
"パピヨン	",1
"ブリュッセルグリフォン	",1
"プチブラバンソン	",1
"ベルジアングリフォン	",1
"ボロニーズ	",1
"ポメラニアン	",1
"豆柴	",1
"マルチーズ	",1
"ヨークシャーテリア	",1
"ロングコートチワワ	",1
"イタリアングレーハウンド	",2
"ウェルシュテリア	",2
"ウエストハイランドホワイトテリア	",2
"キャバリア	",2
"ケアーンテリア	",2
"シーズー	",2
"シーリハムテリア	",2
"シェットランドシープドッグ	",2
"柴犬	",2
"ジャックラッセルテリア	",2
"スキッパーキ	",2
"スコティッシュテリア	",2
"チベタンスパニエル	",2
"チャイニーズ・クレステッド・ドッグ	",2
"狆(チン)	",2
"ノーフォークテリア	",2
"ノーリッチテリア	",2
"パグパ	",2
"ビションフリーゼ	",2
"ペキニーズ	",2
"ボストンテリア	",2
"マンチェスターテリア	",2
"ミニチュアシュナウザー	",2
"ミニチュアダックス	",2
"ミニチュアピンシャー	",2
"ミニチュアプードル	",2
"ラサアプソ	",2
"レークランドテリア	",2
"ワイアーフォックステリア	",2
"アメリカン・コッカー・スパニエル",3
"イングリッシュ・コッカー・スパニエル",3
"ウィペット",3
"ウェルシュ・コーギー・カーディガン",3
"ウェルシュ・コーギー・ペンブローク",3
"シェットランド・シープドッグ",3
"シバイヌ（柴犬）",3
"スタッフォードシャー・ブル・テリア",3
"チベタン・テリア",3
"ニホンスピッツ",3
"バセット・ハウンド",3
"バセンジー",3
"ビーグル",3
"フレンチ・ブルドッグ",3
"ブリタニー・スパニエル",3
"ブルドッグ",3
"プーリー",3
"ボストン・テリア",3
"ミニチュア・ブル・テリア",3
"ワイアー・フォックス・テリア",3
"北海道犬",3
"甲斐犬",3
